---
source: src/ingestor/differ/tests.rs
expression: diff_event

---
DifferenceInTransactions { diff: TransactionDifferenceDetail { original_ingestion_time: 2021-07-09T16:39:57Z, current_ingestion_time: 2021-07-11T16:39:57Z, changes: [(FieldName { field_name: "amount" }, Modified(ChangeDiff { before: "150", after: "15000" }))], total_modifications: 1 } }
